<?xml version="1.0" encoding="utf-8"?>
<!-- Generator: Adobe Illustrator 25.2.1, SVG Export Plug-In . SVG Version: 6.00 Build 0)  -->
<svg version="1.1" id="Layer_1" xmlns="http://www.w3.org/2000/svg" xmlns:xlink="http://www.w3.org/1999/xlink" x="0px" y="0px"
	 viewBox="0 0 499.7 348.7" style="enable-background:new 0 0 499.7 348.7;" xml:space="preserve">
<style type="text/css">
	.st0{fill:#C2001E;}
	.st1{fill:#FFFFFF;stroke:#263238;stroke-linecap:round;stroke-linejoin:round;}
	.st2{fill:#263238;stroke:#263238;stroke-linecap:round;stroke-linejoin:round;}
	.st3{fill:none;stroke:#263238;stroke-linecap:round;stroke-linejoin:round;}
	.st4{fill:#FFFFFF;}
	.st5{fill:#CC8592;}
	.st6{fill:#263238;}
	.st7{fill:none;stroke:#263238;stroke-width:0.9993;stroke-linecap:round;stroke-linejoin:round;stroke-miterlimit:3.9972;}
	.st8{fill:none;stroke:#263238;stroke-width:2;stroke-linecap:round;stroke-linejoin:round;}
</style>
<g id="OBJECTS">
	<path class="st0" d="M277.8,275.4c2.3,1,7.8,0.9,7.8,0.9s-1.2-3.6-1.3-3.9c-1.2-2.5-5.1-6.8-8.2-6.3c-2,0.3-3.4,2.3-3.1,4.3
		c0,0.1,0.1,0.3,0.1,0.4C273.6,273,275.8,274.6,277.8,275.4z"/>
	<path class="st0" d="M279.7,291.6c2.4,0.3,7.3-1.1,7.7-1.2c0.8,2.8,1.8,5.6,3,8.3c0.7,1.6,1.4,3.1,2.2,4.7
		c-0.5-0.7-0.9-1.3-0.9-1.3c-1.8-2.1-6.7-5.2-9.6-4c-1.9,0.9-2.7,3.1-1.8,5c0.1,0.1,0.1,0.2,0.2,0.3c1.1,2,3.7,2.9,5.7,3.2
		s6.4-0.8,7.5-1.1c0.3,0.6,0.6,1.2,0.9,1.8c1.4,2.9,2.9,5.7,4.2,8.5c0.5,1,0.9,2,1.3,3c-0.4-0.6-0.8-1.1-0.8-1.1
		c-1.8-2.1-6.7-5.2-9.6-4c-1.9,0.9-2.7,3.1-1.8,5c0.1,0.1,0.1,0.2,0.2,0.4c1.1,2,3.7,2.9,5.7,3.2s6-0.7,7.3-1.1
		c0.4,1,0.8,2.1,1.2,3.1c0.2,0.7,0.5,1.4,0.7,2.1s0.4,1.4,0.6,2.1c0.3,1.4,0.7,2.8,1,4.1c0.2,0.9,0.4,1.8,0.6,2.7
		c-0.5-1-1.4-2.9-1.5-3.1c-1.5-2.4-5.8-6.1-8.9-5.4c-2,0.6-3.1,2.7-2.6,4.7c0,0.1,0.1,0.2,0.1,0.3c0.8,2.1,3.2,3.5,5.2,4.1
		c2.2,0.7,7.2,0.1,7.8,0c0.3,1.5,0.6,2.9,0.8,4.3c0.5,3,0.9,5.7,1.2,8h2.1c-0.4-2.4-0.8-5.1-1.5-8.3c-0.3-1.5-0.6-3.1-1-4.7
		c1.5-0.6,2.9-1.3,4.3-2c1.6,1.8,5.8,3.8,6.3,4.1c-0.6,1.4-1.1,2.7-1.7,4c-1.2,2.6-2.2,5-3.2,7h2.2c0.8-1.8,1.7-3.9,2.7-6.2
		c0.6-1.4,1.2-2.9,1.8-4.5c0.6,0.1,5.5,1.1,7.7,0.6c2.1-0.5,4.6-1.6,5.5-3.7c0.9-1.9,0.2-4.1-1.7-5c-0.1-0.1-0.3-0.1-0.4-0.2
		c-3-1-7.6,2.4-9.3,4.7c-0.1,0.1-1,1.7-1.6,2.7c0.2-0.6,0.5-1.3,0.7-1.9c0.5-1.3,0.9-2.6,1.4-4c0.2-0.7,0.4-1.4,0.6-2.1
		s0.4-1.5,0.6-2.2c0.4-1.7,0.7-3.5,1-5.2c1.2,0.4,5.2,1.8,7.3,1.7s4.8-0.9,6-2.8c1.2-1.7,0.8-4-0.9-5.2c-0.1-0.1-0.2-0.1-0.3-0.2
		c-2.8-1.5-7.9,1.2-9.9,3.2c-0.1,0.1-1.4,1.7-2.1,2.6c0.2-1.1,0.3-2.1,0.5-3.2c0.4-3.1,0.7-6.3,1-9.5l0.3-2.9c0.4,0.2,5.2,2,7.6,1.8
		c2.1-0.1,4.8-0.9,6-2.8c1.2-1.7,0.8-4-0.9-5.2c-0.1-0.1-0.2-0.1-0.3-0.2c-2.8-1.5-7.9,1.2-9.9,3.2c-0.2,0.1-2,2.5-2.4,3.1
		c0.2-2.1,0.5-4.3,0.8-6.4c0.4-2.8,1-5.6,1.8-8.4c0.2,0.1,5.2,2,7.6,1.8c2.1-0.1,4.8-0.9,6-2.8c1.2-1.7,0.8-4-0.9-5.2
		c-0.1-0.1-0.2-0.1-0.3-0.2c-2.8-1.5-7.9,1.2-9.9,3.2c-0.2,0.2-2.1,2.6-2.5,3.1c0-0.2,0.1-0.3,0.1-0.5c0.9-2.7,2-5.4,3.3-7.9
		c0.7-1.4,1.5-2.7,2.3-4c0.9,0.5,5,2.5,7.2,2.5s4.8-0.4,6.2-2.1c1.4-1.6,1.2-3.9-0.3-5.3c-0.1-0.1-0.2-0.2-0.3-0.2
		c-2.6-1.8-8,0.4-10.2,2.1c-0.1,0.1-1.2,1.2-2,2c0.4-0.6,0.7-1.1,1.1-1.7c1.3-2,2.7-3.8,3.9-5.3c0.7-0.9,1.3-1.6,1.9-2.4
		c1.1,0,5.6-0.1,7.6-1.1s4.1-2.6,4.6-4.8c0.5-2-0.7-4-2.7-4.5c-0.1,0-0.3-0.1-0.4-0.1c-3.2-0.3-6.9,4-8,6.6
		c-0.1,0.2-1.2,3.9-1.2,3.9h0.1c-0.6,0.7-1.2,1.4-1.9,2.2c-1.2,1.5-2.6,3.2-4,5.2c-1.5,2.1-2.9,4.3-4.1,6.6c-1.4,2.5-2.6,5.2-3.5,8
		c0,0,0,0.1,0,0.1c0-0.9,0-3.5,0-3.7c-0.4-2.8-2.7-8-5.8-8.6c-2.1-0.3-4,1.1-4.3,3.2c0,0.1,0,0.3,0,0.4c-0.2,2.2,1.4,4.5,3,5.9
		c1.8,1.6,6.7,3.1,7.1,3.2c-0.9,2.8-1.6,5.7-2.1,8.6c-0.3,1.7-0.6,3.4-0.8,5.1c0-0.8,0-1.5,0-1.6c-0.4-2.8-2.7-8-5.8-8.6
		c-2-0.3-4,1.1-4.3,3.1c0,0.1,0,0.3,0,0.4c-0.2,2.2,1.4,4.5,3,5.9s5.8,2.8,6.9,3.2c-0.1,0.7-0.2,1.3-0.2,2c-0.4,3.2-0.8,6.4-1.2,9.5
		c-0.2,1.1-0.4,2.2-0.5,3.2c0-0.7,0-1.3,0-1.4c-0.4-2.8-2.7-8-5.8-8.6c-2.1-0.3-4,1.1-4.3,3.1c0,0.1,0,0.3,0,0.4
		c-0.2,2.2,1.4,4.5,3,5.9s5.4,2.7,6.7,3.1c-0.2,1.1-0.5,2.2-0.7,3.2c-0.2,0.7-0.3,1.4-0.6,2.1s-0.5,1.4-0.7,2.1
		c-0.5,1.3-1,2.7-1.5,3.9c-0.3,0.9-0.7,1.7-1,2.6c0.2-1.1,0.5-3.2,0.5-3.4c-0.1-2.5-0.7-4.9-2-7.1c0-0.3,0-0.6-0.1-0.8
		c-0.3-2.1-2.1-3.5-4.2-3.3c-0.1,0-0.3,0-0.4,0.1c-3.1,0.8-5,6.2-5.2,9c0,0.2,0.1,2,0.2,3.1c-0.2-0.7-0.3-1.3-0.5-2
		c-0.3-1.4-0.7-2.7-1.1-4.1c-0.2-0.7-0.4-1.4-0.6-2.1c-0.2-0.7-0.5-1.4-0.7-2.1c-0.6-1.6-1.3-3.3-2-5c1.2-0.3,5.4-1.4,7.1-2.6
		s3.5-3.4,3.4-5.6c0.1-2.1-1.6-3.8-3.6-3.9c-0.1,0-0.3,0-0.4,0c-3.2,0.3-5.9,5.4-6.5,8.1c0,0.2-0.2,2.2-0.3,3.3c-0.5-1-0.9-2-1.4-3
		c-1.4-2.8-2.9-5.7-4.4-8.5c-0.5-0.9-0.9-1.7-1.3-2.6c0.4-0.1,5.4-1.3,7.3-2.7c1.7-1.3,3.5-3.4,3.4-5.6c0.1-2.1-1.6-3.8-3.7-3.8
		c-0.1,0-0.2,0-0.3,0c-3.2,0.3-5.9,5.4-6.5,8.1c0,0.2-0.3,3.1-0.3,3.9c-1-1.9-2-3.8-2.8-5.8c-1.2-2.6-2.2-5.3-3.1-8
		c0.2,0,5.4-1.2,7.4-2.7c1.7-1.3,3.5-3.4,3.4-5.6c0.1-2.1-1.6-3.8-3.7-3.8c-0.1,0-0.2,0-0.3,0c-3.2,0.3-5.9,5.4-6.5,8.1
		c0,0.2-0.3,3.4-0.3,3.9c0-0.2-0.1-0.3-0.2-0.5c-0.8-2.8-1.3-5.6-1.6-8.4c-0.2-1.6-0.3-3.1-0.3-4.6c1-0.1,5.5-0.7,7.4-1.9
		s3.8-3,4-5.2c0.3-2-1.1-3.9-3.2-4.2c-0.1,0-0.3,0-0.4,0c-3.2,0-6.4,4.7-7.3,7.4c0,0.1-0.4,1.7-0.6,2.8c0-0.7,0-1.4,0-2
		c0-2.4,0.2-4.6,0.3-6.5c0.1-1.1,0.2-2.1,0.3-3c0.9-0.6,4.6-3.2,5.7-5.1s2-4.4,1.2-6.5c-0.7-1.9-2.8-3-4.8-2.3
		c-0.1,0-0.3,0.1-0.4,0.2c-2.8,1.5-3.5,7.1-3.1,9.9c0,0.2,1.1,3.9,1.2,3.9h0.1c-0.1,0.9-0.2,1.9-0.4,2.9c-0.2,2-0.4,4.1-0.5,6.5
		c-0.1,2.6,0,5.2,0.2,7.8c0.2,2.9,0.7,5.8,1.4,8.6v0.1c-0.5-0.8-2-2.9-2.1-3.1c-1.8-2.1-6.7-5.2-9.6-4c-1.9,0.9-2.7,3.1-1.8,5
		c0.1,0.1,0.1,0.2,0.2,0.4C275,290.3,277.6,291.3,279.7,291.6z"/>
	<path class="st0" d="M334,276.7c0,0,1-3.7,1-3.9c0.4-2.8-0.5-8.4-3.4-9.8c-1.9-0.9-4.1,0-4.9,1.9c-0.1,0.1-0.1,0.3-0.2,0.4
		c-0.8,2.1,0.2,4.7,1.3,6.5C329.3,273.7,334,276.7,334,276.7z"/>
	<path class="st1" d="M10.6,335.9c0,0,8-40.5,8-43.8c-0.3-9.9-1.4-19.7-3.2-29.4c-2.7-14.4-10.7-50.2-12.8-56s5.9-16.5,8-28.8
		s6.9-24,13.4-31.5s29.4-24,29.4-24H65c0,0-4.3,70.4,1.6,81.1s16.5,33.1,17.6,42.7S78.9,271.9,80,281s-8,24-10.1,30.4
		s-1,26.6-1,26.6"/>
	<path class="st2" d="M52.2,142.2l-8.5,9.9c0,0-2.1,11.4-3.2,16.8c-0.7,3.3-1.8,6.5-3.2,9.6c0,0,3.7,8.5,5.9,11.7
		c1.3,2,2.4,4.1,3.2,6.4l5.9,3.7L52.2,142.2L52.2,142.2z"/>
	<path class="st3" d="M22.8,179.8c2.9-0.4,5.7-0.6,8.6-0.6"/>
	<path class="st3" d="M37.5,147.8c0,0,6.1,1.9,6.1,4.3"/>
	<path class="st1" d="M0.5,342.8c0,0,2.7-25.3,2.7-28v-8c0-2.7,2.7-4.7,2.7-4.7s26-5.3,52,3.3s20,22.7,20,22.7l-1.3,20"/>
	<path class="st2" d="M59.2,42.9h310.6c5.3,0,9.6,4.3,9.6,9.6v184.7c0,5.3-4.3,9.6-9.6,9.6H59.2c-5.3,0-9.6-4.3-9.6-9.6V52.5
		C49.6,47.2,53.9,42.9,59.2,42.9z"/>
	<path class="st1" d="M70.7,54.1h287.6c5.3,0,9.6,4.3,9.6,9.6V226c0,5.3-4.3,9.6-9.6,9.6H70.7c-5.3,0-9.6-4.3-9.6-9.6V63.7
		C61.1,58.4,65.4,54.1,70.7,54.1z"/>
	<rect x="263.3" y="61.5" class="st1" width="81.9" height="52.4"/>
	<rect x="263.3" y="108.1" class="st2" width="81.9" height="5.8"/>
	<rect x="263.3" y="110.1" class="st1" width="81.9" height="1.7"/>
	<circle class="st0" cx="302.8" cy="87.4" r="12.1"/>
	<polygon class="st4" points="309.8,87.7 299.3,81.7 299.3,93.8 	"/>
	<rect x="263.3" y="119.6" class="st1" width="81.9" height="52.4"/>
	<rect x="263.3" y="166.1" class="st2" width="81.9" height="5.8"/>
	<rect x="263.3" y="168.2" class="st1" width="81.9" height="1.7"/>
	<circle class="st0" cx="302.8" cy="145.5" r="12.1"/>
	<polygon class="st4" points="309.8,145.8 299.3,139.7 299.3,151.8 	"/>
	<rect x="263.3" y="177.6" class="st1" width="81.9" height="52.4"/>
	<rect x="263.3" y="224.2" class="st2" width="81.9" height="5.8"/>
	<rect x="263.3" y="226.3" class="st1" width="81.9" height="1.7"/>
	<circle class="st0" cx="302.8" cy="203.6" r="12.1"/>
	<polygon class="st4" points="309.8,203.8 299.3,197.8 299.3,209.9 	"/>
	<path class="st5" d="M95.9,79h139.5c3.2,0,5.8,2.6,5.8,5.8v141.9c0,3.2-2.6,5.8-5.8,5.8H95.9c-3.2,0-5.8-2.6-5.8-5.8V84.8
		C90.1,81.6,92.7,79,95.9,79z"/>
	<path class="st1" d="M35.2,217.5c0,0,9.6-20.9,10.6-28.9s-1-26.7,1.6-34.2s1.1-17.1,7.5-20.8s14.9-2.7,16.5,12.3s0,38.4,0.5,46.4
		s14.4,19.8,15,36.8s-5.3,34.7-6.9,42.2s-8,25.1-8,25.1"/>
	<path class="st3" d="M50.1,150.9c3.2-0.8,6.4-0.8,9.6-0.2c2.9,0.5,5.7,1.3,8.5,2.1c0.3-3.5,0.3-7.1,0-10.7c0,0,0.7-6.1-3-8.6
		s-11.1-1.9-13.5,3.7S50.1,150.9,50.1,150.9z"/>
	<path class="st3" d="M63.4,160.7c0,0-12.3-3.7-15.4,1.2"/>
	<path class="st3" d="M51.1,163.8c0,0,3.7,1.2,11.7,0.6"/>
	<path class="st2" d="M372.4,73.9c0,0-13.9,4.3-12.8,8s26.7,35.8,31,34.7s9.1-14.9,9.1-24.6S372.4,73.9,372.4,73.9z"/>
	<path class="st1" d="M485.8,168.2l-13.1-15.8c0,0-17.1-40-21.9-48s-15.5-31-19.2-32s-9.1-1.6-10.7-2.7s-8-3.2-16.5-3.7
		s-26.2-4.3-33.6-6.5s-8,0-17.1,3.2s-36.3,12.8-38.4,14.4s0.5,6.4,7.5,9.1s10.1,0.5,18.1-0.5s20.3-3.1,21.9-3.1s13.3,1.6,15.5,2.7
		s7.5,9.6,7.5,13.9c-0.1,3.1-0.4,6.1-1.1,9.1l-0.2,37.1c0,0,16.9,19.1,28.6,25.6s17.3,6.9,17.3,6.9l18.2,16.9"/>
	<path class="st1" d="M421,69.6c3.5,3.6,6.3,7.8,8.5,12.3"/>
	<path class="st1" d="M471.2,228.5l-40.6-45.7c0,0-18.7-8-31-16s-27.2-33.6-31-39.5s-11.7-17.6-18.1-21.9s-18.1-17.6-20.8-22.9
		s2.1-12.3,8-12.8s30.4,11.2,34.7,17.6S389,107,389,107"/>
	<path class="st3" d="M359.1,88.3c0,0-6.4,6.4-6.9,9.6"/>
	<path class="st3" d="M363.9,88.8c0,0-4.8,7.5-8,10.1"/>
	<path class="st3" d="M353.7,78.2C346.8,83,342,92,342,92s-11.4-4.1-12.3-9.6s0.9-10.9,8-12.8S353.7,78.2,353.7,78.2z"/>
	<path class="st1" d="M485.2,260.5c-2-3.3-46.7-55.7-48.7-62.3s6-22,18.7-36c6.7-7.4,23.4-19.4,32.7-9.6c3.8,4.1,7.1,9,11.3,13"/>
	<path class="st1" d="M203.4,235.4l1.8-28.5c0.6,2.3,1.3,4.5,2.1,6.7c0.9,1.8,19.6-6.7,19.6-6.7s-4.9-33.1-8-45s-4-27.6-6.7-28.5
		s-37.4-17.2-38.3-17.2s-19.6,1.8-19.6,1.8L124,136.4l4.5,99L203.4,235.4z"/>
	<path class="st3" d="M179.4,158.8c0,1-0.1,2-0.2,3"/>
	<path class="st3" d="M177.6,132.4c1.1,7.3,1.7,14.6,1.9,22"/>
	<line class="st3" x1="201.8" y1="156.2" x2="201.9" y2="151.4"/>
	<line class="st3" x1="200.9" y1="205" x2="201.7" y2="159.8"/>
	<polygon class="st1" points="230.8,235.4 228.6,216.7 207.6,220.7 214.7,235.4 	"/>
	<path class="st1" d="M204.2,212c3.7-1.7,7.2-3.6,10.7-5.7c6-3.7,11.7-4.7,13.3-1.7s5.3,11.3,4,12.7s-21,7.7-23,7.7
		s-5.7-6.7-5.7-6.7C203.2,216.2,203.4,214,204.2,212z"/>
	<path class="st1" d="M158.1,109.1c0,0-3.5,2.8-4.6,4.6c-1.1,2.1-2,4.4-2.5,6.7l13.2,18.4l8.3-12.9l3.1-1.8l13.2,8.9
		c0,0-4.6-15.9-9.5-20.8S160.8,107.9,158.1,109.1z"/>
	<path class="st2" d="M174.3,45.3c0,0,7,5.6,7.6,8.7s-1.2,10-1.2,10L171.5,46L174.3,45.3z"/>
	<path class="st1" d="M172.2,42.6c0,0,12.6,27.3,14.4,36.5s0.9,17.8-2.5,24.2s-7,5.5-7,5.5v20.8c0,0-16.3-12.9-17.2-14.4
		s-2.5-4.3-2.5-4.3s-1.8-13.5-7.6-17.5c0,0-7.7,1.2-9.5-5.8s-0.3-9.5,4.6-10.1c0,0-4-10.1-4.9-16.9s10.4-8.9,17.2-13.2
		C161.7,44.8,166.9,43.1,172.2,42.6z"/>
	<polygon class="st2" points="177.1,108.8 171.1,106.5 176.7,116.8 	"/>
	<path class="st2" d="M144.3,79.7c0,0-4-1.5-8.3-7s-5.5-9.8,0.3-19s26.7-17.8,32.5-16.9s9.5,8.3,2.5,12.9c-4.8,3-10.1,5.1-15.6,6.4
		c0,0,3.4-2.8-0.3-3.4s-11,3.1-10.4,6.1s5.2,2.1,4.9,7s-4.6,10.1-3.1,12s5.2,3.4,2.1,4.3S144.3,79.7,144.3,79.7z"/>
	<line class="st3" x1="165.7" y1="84.6" x2="161.1" y2="88.2"/>
	<path class="st3" d="M163.6,87c0,0,5.8,5.5,15.9,0.9"/>
	<path class="st2" d="M165.7,88.9c1.4,2.6,3.9,4.5,6.8,5.2c4.9,1.2,2.5-4.3,2.5-4.3S168.2,89.8,165.7,88.9z"/>
	<path class="st6" d="M160.5,70.4c0.5,1.4,0.3,2.8-0.3,3s-1.5-0.8-2-2.2s-0.3-2.8,0.3-3S160,68.9,160.5,70.4z"/>
	<path class="st6" d="M176.4,65.8c0.5,1.4,0.3,2.8-0.3,3s-1.5-0.8-2-2.2s-0.3-2.8,0.3-3S175.9,64.4,176.4,65.8z"/>
	<path class="st7" d="M152.2,69.2l12.5-4.1c1.1-0.3,2.2,0.2,2.6,1.3l1.8,5.5c0.3,1.1-0.2,2.2-1.3,2.6l-12.5,4.1
		c-1.1,0.3-2.2-0.2-2.6-1.3l-1.8-5.5C150.5,70.7,151.1,69.5,152.2,69.2z"/>
	<line class="st3" x1="167.5" y1="63.6" x2="172" y2="62.1"/>
	<line class="st3" x1="151.4" y1="70" x2="143.4" y2="77.9"/>
	<line class="st3" x1="187.2" y1="57.5" x2="181.2" y2="62.5"/>
	<path class="st3" d="M172.9,61.3l12.5-4.1c1.1-0.4,2.2,0.2,2.6,1.3l1.8,5.5c0.4,1.1-0.2,2.2-1.3,2.6L176,70.7
		c-1.1,0.4-2.2-0.2-2.6-1.3l-1.8-5.5C171.3,62.8,171.8,61.7,172.9,61.3z"/>
	<path class="st8" d="M153.8,65.3c0,0,3.7-4.6,9.2-4"/>
	<path class="st8" d="M170.6,58.8c0,0,2.5-2.4,7-1.2"/>
	<path class="st1" d="M171.6,64.7c0,0,9.2,17.8,8.3,19s-7,0-7,0"/>
	<path class="st1" d="M127.7,134.5c0,0-5.2,0-6.8,4.6s-15.9,57-14.4,58.5s20.8,2.8,23,2.1s11.3-35.9,11.3-35.9"/>
	<path class="st1" d="M135.4,198.6c0,0,1.2-6.1-4-8.6s-13.8-2.1-19,1.8s-6.1,3.1-7.4,10.7s4,12.6,8.3,13.5s8,1.8,13.2-3.4
		S135.4,198.6,135.4,198.6z"/>
	<path class="st1" d="M167.7,166.3c0,0-2.1,46.9-10.1,64.4c0,0,7.7,2.5,20.2,1.2s24.2-8,24.2-8s4.3-25.7,6.4-38.3s3.4-19.6,3.4-19.6
		s-2.8,2.1-18.4,3.1S167.7,166.3,167.7,166.3z"/>
	<path class="st1" d="M147.6,204.7c0,0-17.8-11-20.2-11s-9.8,2.5-12.9,9.5s-2.8,10.7,1.2,11.9s29.7,3.7,32.8,3.7s10.4,1.5,14.7,1.5
		s15.6-1.2,17.2-3.7s-11-1.5-12-1.8s11.5-2.7,13.2-3.1s4-2.8,0.6-3.7c0,0,5.8-2.8,2.1-5.2l-17.1-3l5.3-1.1c0,0,12,3.2,11.8-0.5
		c-0.1-1.5-9.8-4.6-12.9-4.6s-19.3,11-19.3,11L147.6,204.7z"/>
	<line class="st3" x1="182.3" y1="208.1" x2="166.6" y2="206.8"/>
	<path class="st2" d="M201.5,42.9c3.9,4.8,9.1,8.3,15,10.1l-12.1,21.2l22.4-19.6h0.7c10.8,0,20.3-4.7,26-11.8L201.5,42.9z"/>
	<path class="st5" d="M227,0c-17.2,0-31.2,11.9-31.2,26.5c0,11.4,8.4,21,20.3,24.8l-12.1,21.2L226.3,53h0.7
		c17.2,0,31.2-11.9,31.2-26.5S244.2,0,227,0z"/>
	<path class="st4" d="M215.9,27.1c0-1.9-1.6-3.5-3.5-3.5s-3.5,1.6-3.5,3.5s1.6,3.5,3.5,3.5C214.4,30.6,215.9,29,215.9,27.1
		L215.9,27.1z"/>
	<path class="st4" d="M231.4,27.1c0-1.9-1.6-3.5-3.5-3.5s-3.5,1.6-3.5,3.5s1.6,3.5,3.5,3.5C229.8,30.6,231.4,29,231.4,27.1
		L231.4,27.1z"/>
	<circle class="st4" cx="243.4" cy="27.1" r="3.5"/>
</g>
</svg>
