<svg width="42" height="42" viewBox="0 0 42 42" fill="none" xmlns="http://www.w3.org/2000/svg">
<path d="M17.36 22.918C15.96 23.058 14.5432 23.2148 13.1124 23.338C11.6004 23.4696 10.0856 23.59 8.5708 23.6572C8.08923 23.6679 7.61121 23.5723 7.1708 23.3772C5.0512 22.4448 2.9512 21.4676 0.730804 20.454C1.8172 20.3784 2.786 20.2412 3.7492 20.272C4.5892 20.2972 4.7152 19.9752 4.7656 19.2052C4.81983 18.3088 5.04908 17.4318 5.4404 16.6236C6.1152 15.2628 7.3388 14.616 8.8676 14.728C11.3876 14.9128 13.9076 15.1256 16.4276 15.3888C17.724 15.526 18.3708 15.4168 18.4576 13.8264C18.494 13.0984 18.802 12.7904 19.432 12.7512C19.793 12.7364 20.1411 12.6131 20.4309 12.3973C20.7206 12.1815 20.9385 11.8832 21.056 11.5416C21.2996 10.9816 21.7196 10.78 22.274 10.9816C22.6336 11.1273 23.0287 11.1618 23.4081 11.0804C23.7875 10.999 24.1338 10.8056 24.402 10.5252C24.864 10.0828 25.2784 10.1472 25.718 10.5504C25.9793 10.8186 26.3144 11.0033 26.6807 11.081C27.0471 11.1588 27.4282 11.1261 27.776 10.9872C28.308 10.7996 28.7756 10.934 29.0052 11.5248C29.33 12.3648 30.0048 12.7288 30.8448 12.8184C31.3684 12.8744 31.528 13.1124 31.5924 13.6304C31.7884 15.2432 31.8164 15.204 33.488 15.0108C34.6796 14.8708 35.8779 14.7951 37.0776 14.784C39.3792 14.77 41.4736 16.8392 41.2916 19.4712C41.2552 20.0865 41.0916 20.6875 40.8111 21.2363C40.5306 21.7852 40.1393 22.2699 39.662 22.6599C39.1847 23.0498 38.6317 23.3365 38.0379 23.5019C37.4442 23.6673 36.8226 23.7078 36.2124 23.6208C35.3164 23.4892 34.4092 23.4416 33.5076 23.3632C33.1492 23.3296 32.7264 23.4472 32.7264 22.8452C32.7264 22.1648 33.208 22.3272 33.5664 22.3468C34.4456 22.3916 35.3248 22.4392 36.1956 22.5456C38.3684 22.8088 40.2864 21.3556 40.446 19.292C40.6056 17.2284 38.8668 15.4868 36.68 15.5316C35.56 15.554 34.4568 15.7108 33.3592 15.8116C33.3203 16.1162 33.2519 16.4163 33.1548 16.7076C32.9494 17.0986 32.8663 17.5424 32.9162 17.9812C32.9662 18.4201 33.1468 18.8338 33.4348 19.1688C33.5024 19.2339 33.5548 19.3131 33.5883 19.4007C33.6218 19.4883 33.6355 19.5823 33.6286 19.6759C33.6216 19.7694 33.5941 19.8603 33.5481 19.9421C33.502 20.0238 33.4385 20.0944 33.362 20.1488C32.6396 20.7732 32.3288 21.5152 32.5892 22.4868C32.7152 22.946 32.5136 23.2932 32.0012 23.45C31.1612 23.7104 30.5816 24.2368 30.4332 25.1636C30.3548 25.6452 30.058 25.8692 29.5316 25.8468C28.6916 25.8104 27.8992 25.9812 27.3924 26.7876C27.3424 26.8912 27.2696 26.9822 27.1795 27.0538C27.0894 27.1253 26.9844 27.1756 26.8721 27.2009C26.7599 27.2262 26.6434 27.2259 26.5313 27.1999C26.4192 27.1739 26.3144 27.1229 26.2248 27.0508C25.8838 26.8173 25.4802 26.6924 25.067 26.6924C24.6538 26.6924 24.2502 26.8173 23.9092 27.0508C23.8255 27.1219 23.7267 27.1732 23.6203 27.2008C23.514 27.2283 23.4027 27.2315 23.295 27.2099C23.1872 27.1884 23.0857 27.1427 22.9982 27.0763C22.9106 27.01 22.8391 26.9247 22.7892 26.8268C22.246 25.9868 21.4144 25.858 20.5072 25.8076C20.3537 25.7868 20.2075 25.729 20.0812 25.6393C19.9548 25.5496 19.8522 25.4305 19.782 25.2924C19.6891 24.8351 19.471 24.4127 19.1522 24.0721C18.8333 23.7314 18.4261 23.486 17.976 23.3632C17.7497 23.2462 17.5421 23.0962 17.36 22.918ZM24.92 11.2C24.2732 11.8748 23.6684 12.4852 22.7304 12.1044C22.1704 11.8748 21.8652 12.1352 21.6664 12.6028C21.5539 12.8862 21.3619 13.131 21.1136 13.3079C20.8652 13.4847 20.571 13.586 20.2664 13.5996C20.1596 13.5962 20.0534 13.6157 19.9548 13.6568C19.8562 13.698 19.7676 13.7598 19.6949 13.838C19.6222 13.9163 19.5671 14.0092 19.5333 14.1106C19.4996 14.2119 19.4879 14.3193 19.4992 14.4256C19.5141 14.7592 19.4318 15.09 19.2623 15.3778C19.0928 15.6656 18.8434 15.898 18.5444 16.0468C18.4511 16.0839 18.3674 16.1414 18.2994 16.2152C18.2314 16.2891 18.1809 16.3772 18.1516 16.4732C18.1223 16.5692 18.1149 16.6706 18.1301 16.7698C18.1453 16.869 18.1826 16.9635 18.2392 17.0464C18.3931 17.344 18.4553 17.6805 18.4179 18.0134C18.3805 18.3463 18.2452 18.6607 18.0292 18.9168C17.9649 18.9825 17.9156 19.0614 17.8847 19.148C17.8539 19.2346 17.8422 19.3268 17.8504 19.4184C17.8587 19.51 17.8867 19.5987 17.9325 19.6783C17.9784 19.758 18.041 19.8268 18.116 19.88C18.3751 20.0912 18.5701 20.3707 18.679 20.6868C18.7878 21.0029 18.8062 21.3432 18.732 21.6692C18.6312 22.2124 18.872 22.5316 19.3788 22.6856C19.6635 22.7605 19.9199 22.9175 20.1161 23.1371C20.3123 23.3566 20.4395 23.629 20.482 23.9204C20.5912 24.4804 20.9244 24.7408 21.4956 24.6708C21.7874 24.6222 22.087 24.6599 22.3576 24.7793C22.6282 24.8987 22.858 25.0945 23.0188 25.3428C23.3632 25.8328 23.7636 25.8664 24.2424 25.564C24.4855 25.3997 24.7722 25.3119 25.0656 25.3119C25.359 25.3119 25.6457 25.3997 25.8888 25.564C26.3452 25.844 26.7288 25.816 27.0564 25.354C27.2221 25.0942 27.4611 24.8893 27.7432 24.7653C28.0252 24.6412 28.3377 24.6034 28.6412 24.6568C29.1312 24.71 29.4812 24.5476 29.5736 24.0212C29.7136 23.2652 30.1924 22.8508 30.8868 22.5596C31.015 22.4755 31.1212 22.362 31.1967 22.2285C31.2722 22.0951 31.3147 21.9456 31.3208 21.7924C31.2732 21.0308 31.3712 20.3672 31.99 19.852C32.354 19.5496 32.298 19.2136 32.0516 18.872C31.8454 18.6255 31.7151 18.3245 31.6763 18.0055C31.6376 17.6865 31.6921 17.3631 31.8332 17.0744C32.0852 16.5564 31.9116 16.2092 31.4552 15.9544C31.1934 15.8222 30.9751 15.6176 30.8262 15.3649C30.6773 15.1123 30.6041 14.8222 30.6152 14.5292C30.6152 14.0644 30.4696 13.6248 29.8732 13.5856C29.5408 13.5697 29.2199 13.459 28.9484 13.2665C28.677 13.0739 28.4664 12.8077 28.3416 12.4992C28.2324 12.2808 27.8544 11.9756 27.7228 12.026C26.6 12.4824 25.774 11.9756 24.92 11.2ZM10.6876 15.4896C12.5468 17.8892 12.586 20.1656 10.9676 22.61C13.146 22.428 15.1256 22.2824 17.0996 22.0864C17.6596 22.0332 17.8164 21.5628 17.5196 21.0868C17.3676 20.8352 17.1789 20.6077 16.9596 20.412C16.4248 19.95 16.3408 19.4656 16.8028 18.914C17.5392 18.0348 17.0828 17.1556 16.7776 16.2904C16.7231 16.2079 16.6513 16.1384 16.5672 16.0867C16.483 16.0349 16.3885 16.0022 16.2904 15.9908C15.1704 15.8648 14.07 15.7668 12.9584 15.666C12.292 15.6072 11.6116 15.5596 10.6876 15.4896ZM10.178 19.2164C10.178 17.5924 9.128 16.2344 7.8176 16.1672C6.6164 16.1084 5.558 17.262 5.3564 18.8552C5.3564 18.9084 5.3368 18.9588 5.3312 19.012C5.194 20.7116 6.4148 22.246 7.8512 22.1872C9.1392 22.1368 10.1752 20.8124 10.178 19.2164ZM9.058 15.75C10.332 16.6936 10.92 17.836 10.892 19.2976C10.864 20.7592 10.1948 21.8848 8.9852 22.7192C10.528 22.33 11.3876 20.8292 11.3008 18.7992C11.2392 17.36 10.3012 15.9936 9.0636 15.75H9.058ZM3.08 20.9636L5.3564 21.9604C4.9448 20.5408 4.8664 20.5072 3.08 20.9636Z" fill="url(#paint0_linear)"/>
<path d="M31.5728 25.564L33.8464 31.164L30.324 29.7248L28.84 33.236C28.2184 31.7016 27.65 30.2988 27.0844 28.8932C27.0543 28.8205 27.0475 28.7403 27.0648 28.6636C27.216 28.1764 28.826 26.936 29.3272 26.9836C30.422 27.0788 31.3152 26.922 31.388 25.4688L31.5728 25.564Z" fill="url(#paint1_linear)"/>
<path d="M23.52 28.7616L21.6244 33.4208L20.1124 29.932L16.8672 31.2452L16.6992 31.1164C17.3684 29.4616 18.0348 27.8068 18.7768 25.97C19.0344 27.09 19.7988 27.0284 20.4904 26.9528C21.3024 26.866 21.7588 27.3112 22.2516 27.8208C22.6504 28.1655 23.0744 28.48 23.52 28.7616Z" fill="url(#paint2_linear)"/>
<defs>
<linearGradient id="paint0_linear" x1="0.733604" y1="18.718" x2="41.3084" y2="18.718" gradientUnits="userSpaceOnUse">
<stop stop-color="#C2001E"/>
<stop offset="1" stop-color="#8F001E"/>
</linearGradient>
<linearGradient id="paint1_linear" x1="682.994" y1="839.627" x2="847.947" y2="839.627" gradientUnits="userSpaceOnUse">
<stop stop-color="#C2001E"/>
<stop offset="1" stop-color="#8F001E"/>
</linearGradient>
<linearGradient id="paint2_linear" x1="423.492" y1="816.202" x2="589.305" y2="816.202" gradientUnits="userSpaceOnUse">
<stop stop-color="#C2001E"/>
<stop offset="1" stop-color="#8F001E"/>
</linearGradient>
</defs>
</svg>
