<svg width="41" height="41" viewBox="0 0 41 41" fill="none" xmlns="http://www.w3.org/2000/svg">
<path d="M8.6018 34.3279H32.3162C32.3162 34.1257 32.3408 33.9453 32.3408 33.7813C32.3408 27.4837 32.3408 21.1861 32.3408 14.8885C32.3408 14.3664 32.1905 14.227 31.6875 14.2407C30.4931 14.2735 29.2959 14.2407 28.1014 14.2571C27.7269 14.2571 27.5793 14.1532 27.6121 13.7705C27.6395 13.4425 27.6121 13.1091 27.6121 12.7237H28.331C31.0261 12.7237 33.7239 12.7838 36.4135 12.7018C38.1546 12.6499 39.4037 14.2024 39.3928 15.7085C39.3436 21.4676 39.3709 27.2267 39.3709 32.9859C39.3709 34.7625 38.1792 35.9488 36.3916 35.9488H4.42799C2.61579 35.9488 1.43499 34.7625 1.43499 32.9421C1.43499 27.1666 1.45686 21.3911 1.41859 15.6155C1.42909 14.8459 1.73836 14.1106 2.28105 13.5648C2.82375 13.0191 3.55735 12.7057 4.32686 12.6909C7.18866 12.7647 10.0669 12.7127 12.915 12.7127H13.4863V14.2133C13.2949 14.2133 13.1173 14.2461 12.9396 14.2461C11.644 14.2461 10.3457 14.2461 9.05006 14.2461C8.72753 14.2461 8.56353 14.309 8.56626 14.6917C8.56626 21.1405 8.56626 27.5893 8.56626 34.0382C8.57173 34.1093 8.58813 34.1913 8.6018 34.3279ZM33.8687 34.3553C34.8309 34.3553 35.7192 34.3553 36.6021 34.3553C37.4849 34.3553 37.8102 34.0409 37.8102 33.1335C37.8102 27.2404 37.8102 21.3482 37.8102 15.457C37.8102 14.5878 37.5095 14.2762 36.6294 14.2489C35.9215 14.227 35.2135 14.2489 34.5083 14.2489C33.8605 14.2489 33.8633 14.2489 33.8633 14.8857V34.3662L33.8687 34.3553ZM6.96726 34.3553C6.98303 34.2831 6.9949 34.2101 7.0028 34.1366C7.0028 27.6404 7.00735 21.1432 7.01646 14.6452C7.01646 14.3227 6.88526 14.2461 6.59553 14.2516C5.80559 14.2516 5.01293 14.2516 4.22299 14.2516C3.33739 14.2516 3.00666 14.6015 3.00666 15.4789C3.00666 18.409 3.00666 21.3382 3.00666 24.2665C3.00666 27.244 3.00666 30.2225 3.00666 33.2018C3.00666 33.8906 3.27999 34.3197 3.82666 34.3416C4.85713 34.3744 5.89853 34.3443 6.96726 34.3443V34.3553Z" fill="url(#paint0_linear)"/>
<path d="M12.8931 24.2036C12.5105 24.2036 12.1606 24.2036 11.7998 24.2036C11.685 24.2036 11.5702 24.1872 11.4636 24.179C11.2149 21.9158 12.8303 18.2696 16.3098 16.6296C19.68 15.0552 23.616 15.9462 26.1416 18.8846C27.321 20.2524 28.0143 21.9723 28.1132 23.7757C28.2121 25.5791 27.7111 27.3644 26.6883 28.853C24.5207 32.0756 20.5246 33.0979 18.1138 32.4501L18.4445 31.037C20.951 31.242 23.2033 30.7199 24.928 28.7628C25.5052 28.1121 25.9486 27.354 26.2328 26.5318C26.517 25.7097 26.6365 24.8396 26.5844 23.9713C26.445 20.4125 23.9194 17.7666 20.5 17.4441C16.5585 17.0724 13.12 19.68 12.8931 24.2036Z" fill="url(#paint1_linear)"/>
<path d="M20.7433 5.27809C16.0966 5.33276 12.1032 6.45069 8.46513 8.83143C8.3968 8.87789 8.323 8.92163 8.25193 8.96536C7.74626 9.26876 7.31713 9.20316 7.06566 8.79043C6.8142 8.37769 6.97 7.97043 7.44286 7.64243C10.4762 5.6143 13.9501 4.33984 17.5753 3.92509C23.1048 3.22877 28.7025 4.50649 33.3822 7.53309C33.513 7.60833 33.6373 7.69427 33.7539 7.79003C33.9082 7.91141 34.0088 8.0883 34.0343 8.2829C34.0599 8.47749 34.0083 8.67436 33.8906 8.83143C33.8407 8.91078 33.7757 8.97952 33.6992 9.03373C33.6228 9.08794 33.5364 9.12656 33.445 9.14737C33.3537 9.16819 33.2591 9.17079 33.1667 9.15504C33.0743 9.13928 32.9859 9.10548 32.9066 9.05556C32.4365 8.78223 31.9909 8.48976 31.5235 8.22189C28.2388 6.34016 24.5285 5.32699 20.7433 5.27809Z" fill="url(#paint2_linear)"/>
<path d="M17.4031 24.2774C17.4031 23.4192 17.4031 22.5609 17.4031 21.7054C17.4031 20.7378 18.2231 20.2485 19.0431 20.7241C20.5811 21.6097 22.1172 22.4999 23.6515 23.3946C24.5672 23.9412 24.5563 24.6984 23.6515 25.2286C22.1291 26.1115 20.6148 27.0053 19.0923 27.8854C18.737 28.0932 18.3461 28.2517 17.958 28.0139C17.7774 27.9054 17.6305 27.7486 17.534 27.5613C17.4374 27.374 17.3949 27.1635 17.4113 26.9534C17.4168 26.0623 17.4031 25.1685 17.4031 24.2774ZM19.0978 22.6156V26.0022L22.0197 24.3048C21.0029 23.7198 20.0818 23.1868 19.0978 22.6156Z" fill="url(#paint3_linear)"/>
<path d="M20.3688 8.34485C22.8345 8.36123 25.2744 8.84828 27.5575 9.77985C28.126 10.0149 28.3392 10.4085 28.1561 10.8732C27.9893 11.2914 27.5438 11.4417 27.0053 11.2176C25.1226 10.442 23.1192 9.99993 21.0849 9.91105C18.6759 9.81242 16.2736 10.229 14.0384 11.1328C13.325 11.4062 12.8877 11.3515 12.6717 10.9032C12.4367 10.3866 12.6717 10.0012 13.4453 9.69238C15.6522 8.82666 17.9983 8.37003 20.3688 8.34485Z" fill="url(#paint4_linear)"/>
<path d="M20.4699 12.8002C21.3911 12.904 22.3122 12.9942 23.2251 13.1227C23.331 13.1277 23.4346 13.1552 23.529 13.2033C23.6234 13.2515 23.7064 13.3192 23.7726 13.4019C23.8388 13.4847 23.8867 13.5806 23.9129 13.6832C23.9392 13.7859 23.9432 13.893 23.9249 13.9974C23.9097 14.0973 23.8746 14.1932 23.8216 14.2793C23.7687 14.3655 23.699 14.4401 23.6166 14.4987C23.5342 14.5573 23.4409 14.5988 23.3422 14.6207C23.2435 14.6426 23.1414 14.6444 23.042 14.626C22.3532 14.5686 21.6753 14.421 20.9838 14.4292C19.9615 14.4292 18.9393 14.544 17.9197 14.6178C17.3211 14.6588 16.9549 14.4402 16.8947 13.9837C16.8346 13.5272 17.1161 13.1801 17.7147 13.0981C18.6222 12.9724 19.5461 12.8958 20.4699 12.8002Z" fill="url(#paint5_linear)"/>
<path d="M11.48 25.092L13.0353 24.9799L13.3086 26.3247L11.8299 26.8031L11.48 25.092Z" fill="url(#paint6_linear)"/>
<path d="M12.5733 28.495L13.8826 27.6968C14.1313 28.0139 14.3883 28.3118 14.6069 28.6371C14.6212 28.695 14.6215 28.7554 14.6077 28.8134C14.5939 28.8714 14.5665 28.9253 14.5277 28.9706C14.2352 29.2658 13.9181 29.5364 13.5573 29.8644L12.5733 28.495Z" fill="url(#paint7_linear)"/>
<path d="M14.8912 31.0971C15.1891 30.6981 15.4023 30.3755 15.6565 30.0885C15.7084 30.039 15.7717 30.0028 15.8408 29.9833C15.9099 29.9637 15.9827 29.9614 16.0529 29.9765C16.3841 30.1542 16.7061 30.3485 17.0177 30.5587L16.3508 31.9417L14.8912 31.0971Z" fill="url(#paint8_linear)"/>
<path d="M4.40067 20.9073H5.88213V27.634H4.40067V20.9073Z" fill="url(#paint9_linear)"/>
<defs>
<linearGradient id="paint0_linear" x1="1.41859" y1="24.3075" x2="39.4092" y2="24.3075" gradientUnits="userSpaceOnUse">
<stop stop-color="#C2001E"/>
<stop offset="1" stop-color="#8F001E"/>
</linearGradient>
<linearGradient id="paint1_linear" x1="710.448" y1="1503.84" x2="1728.34" y2="1503.84" gradientUnits="userSpaceOnUse">
<stop stop-color="#C2001E"/>
<stop offset="1" stop-color="#8F001E"/>
</linearGradient>
<linearGradient id="paint2_linear" x1="695.955" y1="131.891" x2="3381.54" y2="131.891" gradientUnits="userSpaceOnUse">
<stop stop-color="#C2001E"/>
<stop offset="1" stop-color="#8F001E"/>
</linearGradient>
<linearGradient id="paint3_linear" x1="458.565" y1="696.588" x2="634.475" y2="696.588" gradientUnits="userSpaceOnUse">
<stop stop-color="#C2001E"/>
<stop offset="1" stop-color="#8F001E"/>
</linearGradient>
<linearGradient id="paint4_linear" x1="733.222" y1="115.406" x2="1626.79" y2="115.406" gradientUnits="userSpaceOnUse">
<stop stop-color="#C2001E"/>
<stop offset="1" stop-color="#8F001E"/>
</linearGradient>
<linearGradient id="paint5_linear" x1="452.468" y1="105.033" x2="634.13" y2="105.033" gradientUnits="userSpaceOnUse">
<stop stop-color="#C2001E"/>
<stop offset="1" stop-color="#8F001E"/>
</linearGradient>
<linearGradient id="paint6_linear" x1="88.2812" y1="197.686" x2="100.515" y2="197.686" gradientUnits="userSpaceOnUse">
<stop stop-color="#C2001E"/>
<stop offset="1" stop-color="#8F001E"/>
</linearGradient>
<linearGradient id="paint7_linear" x1="106.539" y1="255.916" x2="121.873" y2="255.916" gradientUnits="userSpaceOnUse">
<stop stop-color="#C2001E"/>
<stop offset="1" stop-color="#8F001E"/>
</linearGradient>
<linearGradient id="paint8_linear" x1="130.745" y1="253.623" x2="147.289" y2="253.623" gradientUnits="userSpaceOnUse">
<stop stop-color="#C2001E"/>
<stop offset="1" stop-color="#8F001E"/>
</linearGradient>
<linearGradient id="paint9_linear" x1="28.2523" y1="618.174" x2="36.2818" y2="618.174" gradientUnits="userSpaceOnUse">
<stop stop-color="#C2001E"/>
<stop offset="1" stop-color="#8F001E"/>
</linearGradient>
</defs>
</svg>
