 
 -------------- celery@DESKTOP-JR9CEGT v5.0.2 (singularity)
--- ***** ----- 
-- ******* ---- Linux-4.19.128-microsoft-standard-x86_64-with-glibc2.29 2021-02-24 15:10:52
- *** --- * --- 
- ** ---------- [config]
- ** ---------- .> app:         project:0x7f6f0e763a90
- ** ---------- .> transport:   redis://localhost:6379//
- ** ---------- .> results:     redis://localhost:6379/
- *** --- * --- .> concurrency: 6 (prefork)
-- ******* ---- .> task events: OFF (enable -E to monitor tasks in this worker)
--- ***** ----- 
 -------------- [queues]
                .> celery           exchange=celery(direct) key=celery
                

[tasks]
  . create_user_cart
  . create_user_wishlist
  . project.celery.debug_task
  . send_payment_link
  . send_payment_success
  . send_signup_mail
  . set_signup_commission

