True
 
 -------------- celery@DESKTOP-JR9CEGT v5.0.2 (singularity)
--- ***** ----- 
-- ******* ---- Linux-5.4.72-microsoft-standard-WSL2-x86_64-with-Ubuntu-18.04-bionic 2021-03-30 10:32:03
- *** --- * --- 
- ** ---------- [config]
- ** ---------- .> app:         project:0x7fcdcf237ac8
- ** ---------- .> transport:   redis://localhost:6379//
- ** ---------- .> results:     redis://localhost:6379/
- *** --- * --- .> concurrency: 6 (prefork)
-- ******* ---- .> task events: OFF (enable -E to monitor tasks in this worker)
--- ***** ----- 
 -------------- [queues]
                .> celery           exchange=celery(direct) key=celery
                

[tasks]
  . create_user_cart
  . create_user_wishlist
  . project.celery.debug_task
  . send_payment_link
  . send_payment_success
  . send_signup_mail
  . set_signup_commission

